<svg width="32" height="32" viewBox="0 0 32 32" fill="none" xmlns="http://www.w3.org/2000/svg">
<path d="M14.4441 0C15.6874 0 16.8794 0.490113 17.7571 1.36793L30.6287 14.2425C32.4571 16.0713 32.4571 19.0339 30.6287 20.8627L20.8653 30.6284C19.0369 32.4572 16.075 32.4572 14.2466 30.6284L1.37493 17.7538C0.490001 16.876 0 15.6909 0 14.4474V3.51126C0 1.57275 1.57239 0 3.51046 0H14.4441ZM3.51046 14.4474C3.51046 14.7546 3.63478 15.0545 3.85419 15.274L16.7259 28.1486C17.1793 28.6021 17.9253 28.6021 18.3787 28.1486L28.1422 18.3829C28.5956 17.9294 28.5956 17.1832 28.1422 16.7297L15.2705 3.85507C15.0511 3.63562 14.7512 3.51126 14.4441 3.51126H3.51046V14.4474ZM8.19106 5.8521C8.81175 5.8521 9.40702 6.09872 9.84591 6.53771C10.2848 6.97671 10.5314 7.57211 10.5314 8.19294C10.5314 8.81377 10.2848 9.40917 9.84591 9.84816C9.40702 10.2872 8.81175 10.5338 8.19106 10.5338C7.57038 10.5338 6.97511 10.2872 6.53622 9.84816C6.09733 9.40917 5.85076 8.81377 5.85076 8.19294C5.85076 7.57211 6.09733 6.97671 6.53622 6.53771C6.97511 6.09872 7.57038 5.8521 8.19106 5.8521Z" fill="#73CC70"/>
</svg>
