<svg xmlns="http://www.w3.org/2000/svg" version="1.1" viewBox="0 0 24 24" fill="#2C4FA3">
    <g>
        <path
            d="m21.71 6.29-4-4c-.39-.39-1.03-.39-1.42 0s-.39 1.03 0 1.42L17.59 5 14.5 8.09l-2.79-2.8c-.39-.39-1.03-.39-1.42 0s-.39 1.03 0 1.42l.3.29-1.08 1.09 1.7 1.7c.39.39.39 1.03 0 1.42-.2.19-.45.29-.71.29s-.51-.1-.71-.29l-1.7-1.7-1.08 1.08 1.7 1.7c.39.39.39 1.03 0 1.42-.2.19-.45.29-.71.29s-.51-.1-.71-.29l-1.7-1.7-.59.58c-.58.58-1 1.59-1 2.41v3c0 .18.03.35.07.51l-1.78 1.78c-.39.39-.39 1.03 0 1.42.2.19.45.29.71.29s.51-.1.71-.29l1.78-1.78c.16.04.33.07.51.07h3c.82 0 1.83-.42 2.41-1L17 13.41l.29.3c.2.19.45.29.71.29s.51-.1.71-.29c.39-.39.39-1.03 0-1.42l-2.8-2.79L19 6.41l1.29 1.3c.2.19.45.29.71.29s.51-.1.71-.29c.39-.39.39-1.03 0-1.42z">
        </path>
    </g>
</svg>