<svg xmlns="http://www.w3.org/2000/svg" version="1.1" xmlns:xlink="http://www.w3.org/1999/xlink"
    xmlns:svgjs="http://svgjs.com/svgjs" width="512" height="512" x="0" y="0" viewBox="0 0 512.001 512.001"
    style="enable-background:new 0 0 512 512" xml:space="preserve" class="">
    <g>
        <path
            d="M507.608 4.395a15 15 0 0 0-16.177-3.321L9.43 193.872a15.002 15.002 0 0 0-.975 27.424l190.068 92.181 92.182 190.068a14.999 14.999 0 0 0 27.423-.974l192.8-481.998a15.001 15.001 0 0 0-3.32-16.178zM52.094 209.118 434.72 56.069 206.691 284.096 52.094 209.118zm250.789 250.789-74.979-154.599 228.03-228.027-153.051 382.626z"
            fill="#ffffff" data-original="#000000" class=""></path>
    </g>
</svg>